<svg width="170" height="130" viewbox="0 0 170 130"
    xmlns="http://www.w3.org/2000/svg"
    xmlns:xlink="http://www.w3.org/1999/xlink"
    >
	<defs>
        <style type="text/css">
            @font-face {
              font-family: "roboto-regular";
              src: url('site/images/fonts/Roboto-Regular.ttf') format('truetype');
            }
        </style>
        <symbol id="image-avatar" viewBox="0 0 40 50">
            <rect width="30" height="30" x="0" y="0" style="fill: #f2f2f2; opacity: 0.5;"/>
            <polygon points="8, 5 3, 14 13, 14 8, 5"
                style="fill:#cccccc;stroke:#808080;stroke-width: 1;"/>
            <rect width="6" height="6" x="12" y="20" style="fill:#cccccc;stroke:#808080;"/>
            <circle cx="20" cy="10" r="4" style="fill:#f9f9f9;stroke:#808080;"/>
        </symbol>
        <symbol id="image-background" viewBox="0 0 40 50">
            <polygon points="8, 5 3, 14 13, 14 8, 5"
                style="fill:#cccccc;stroke:#808080;stroke-width: 1;"/>
            <rect width="6" height="6" x="12" y="20" style="fill:#fff;stroke:#808080;"/>
            <circle cx="20" cy="10" r="4" style="fill:#f9f9f9;stroke:#808080;"/>
        </symbol>
        <symbol id="generic-article" viewBox="0 0 50 50">
            <rect x="5" y="5" width="10" height="5" style="fill: rgba(0,0,0,0.7); stroke: none;"/>
            <rect x="20" y="5" width="5" height="5" style="fill: rgba(0,0,0,0.7); stroke: none;"/>
            <rect x="30" y="5" width="8" height="5" style="fill: rgba(0,0,0,0.7); stroke: none;"/>
            <line x1="5" y1="12" x2="45" y2="12" style="stroke: rgba(0,0,0,0.7); stroke-width: 0.5; fill: none;"/>
            <rect x="5" y="16" width="6" height="2" style="stroke: none; fill: rgba(0,0,0,0.4);"/>
            <rect x="13" y="16" width="2" height="2" style="stroke: none; fill: rgba(0,0,0,0.4);"/>
            <rect x="17" y="16" width="7" height="2" style="stroke: none; fill: rgba(0,0,0,0.4);"/>
            <rect x="26" y="16" width="6" height="2" style="stroke: none; fill: rgba(0,0,0,0.4);"/>
            <rect x="34" y="16" width="2" height="2" style="stroke: none; fill: rgba(0,0,0,0.4);"/>
            <rect x="38" y="16" width="7" height="2" style="stroke: none; fill: rgba(0,0,0,0.4);"/>

            <rect x="5" y="22" width="2" height="2" style="stroke: none; fill: rgba(0,0,0,0.4);"/>
            <rect x="9" y="22" width="6" height="2" style="stroke: none; fill: rgba(0,0,0,0.4);"/>
            <rect x="17" y="22" width="7" height="2" style="stroke: none; fill: rgba(0,0,0,0.4);"/>
            <rect x="26" y="22" width="6" height="2" style="stroke: none; fill: rgba(0,0,0,0.4);"/>
            <rect x="34" y="22" width="7" height="2" style="stroke: none; fill: rgba(0,0,0,0.4);"/>
            <rect x="43" y="22" width="2" height="2" style="stroke: none; fill: rgba(0,0,0,0.4);"/>

            <rect x="5" y="28" width="5" height="2" style="stroke: none; fill: rgba(0,0,0,0.4);"/>
            <rect x="12" y="28" width="6" height="2" style="stroke: none; fill: rgba(0,0,0,0.4);"/>
            <rect x="20" y="28" width="7" height="2" style="stroke: none; fill: rgba(0,0,0,0.4);"/>
            <rect x="29" y="28" width="2" height="2" style="stroke: none; fill: rgba(0,0,0,0.4);"/>
            <rect x="33" y="28" width="6" height="2" style="stroke: none; fill: rgba(0,0,0,0.4);"/>
            <rect x="41" y="28" width="4" height="2" style="stroke: none; fill: rgba(0,0,0,0.4);"/>

            <rect x="5" y="34" width="6" height="2" style="stroke: none; fill: rgba(0,0,0,0.4);"/>
            <rect x="13" y="34" width="2" height="2" style="stroke: none; fill: rgba(0,0,0,0.4);"/>
            <rect x="17" y="34" width="7" height="2" style="stroke: none; fill: rgba(0,0,0,0.4);"/>
            <rect x="26" y="34" width="6" height="2" style="stroke: none; fill: rgba(0,0,0,0.4);"/>
            <rect x="34" y="34" width="2" height="2" style="stroke: none; fill: rgba(0,0,0,0.4);"/>
            <rect x="38" y="34" width="7" height="2" style="stroke: none; fill: rgba(0,0,0,0.4);"/>

            <rect x="5" y="40" width="2" height="2" style="stroke: none; fill: rgba(0,0,0,0.4);"/>
            <rect x="9" y="40" width="6" height="2" style="stroke: none; fill: rgba(0,0,0,0.4);"/>
            <rect x="17" y="40" width="7" height="2" style="stroke: none; fill: rgba(0,0,0,0.4);"/>
            <rect x="26" y="40" width="6" height="2" style="stroke: none; fill: rgba(0,0,0,0.4);"/>
            <rect x="34" y="40" width="7" height="2" style="stroke: none; fill: rgba(0,0,0,0.4);"/>
            <rect x="43" y="40" width="2" height="2" style="stroke: none; fill: rgba(0,0,0,0.4);"/>
        </symbol>

        <symbol id="form-generic" viewBox="0 0 50 70">
            <rect x="5" y="10" width="20" height="2" style="stroke: none; fill: rgba(255,255,255,0.7);"/>
            <line x1="5" y1="18" x2="45" y2="18" style="stroke: white; stroke-width: 0.5; fill: none;"/>
            <rect x="5" y="28" width="20" height="2" style="stroke: none; fill: rgba(255,255,255,0.7);"/>
            <line x1="5" y1="36" x2="45" y2="36" style="stroke: white; stroke-width: 0.5; fill: none;"/>
            <rect x="5" y="46" width="20" height="2" style="stroke: none; fill: rgba(255,255,255,0.7);"/>
            <line x1="5" y1="54" x2="45" y2="54" style="stroke: white; stroke-width: 0.5; fill: none;"/>
            <rect x="15" y="62" width="20" height="4" rx="2" style="stroke: none; fill: rgba(255,255,255,0.8);"/>
        </symbol>
    </defs>
    <!-- set background color on whole image -->
    <rect width="100%" height="100%" fill="white" x="0" y="0"/>
    <!-- section info -->
  	<g>
        <rect x="0" y="0" width="119" height="104" style="stroke: none; fill: rgba(0,0,0,0.07)"/>
        <use xlink:href="#image-background" width="100" x="10" y="0" style="opacity: 0.07; transform: scale(1.4);"/>
        <use xlink:href="#generic-article" width="50" height="50" x="50" y="35"/>
  	</g>
  	<!-- section contact -->
  	<g>
        <rect height="104" width="51" x="119" y="0" style="fill: #34427f"/>
        <use xlink:href="#form-generic" width="50" height="70" x="120" y="0"/>
        <use xlink:href="#image-avatar" width="20" height="30" x="138" y="75"/>
  	</g>
  	<!-- footer -->
  	<g>
        <rect height="13" width="170" x="0" y="104" style="fill: white;"/>
        <rect x="28" y="110" width="20" height="2" style="stroke: none; fill: rgba(0,0,0,0.4);"/>
        <rect width="3" height="3" style="stroke: #000; fill: white; stroke-width: 0.5;" x="55" y="109"/>
        <rect width="3" height="3" style="stroke: #000; fill: white; stroke-width: 0.5;" x="61" y="109"/>
        <rect x="80" y="110" width="20" height="2" style="stroke: none; fill: rgba(0,0,0,0.4);"/>
        <rect width="3" height="3" style="stroke: #000; fill: white; stroke-width: 0.5;" x="105" y="109"/>
        <rect width="3" height="3" style="stroke: #000; fill: white; stroke-width: 0.5;" x="111" y="109"/>
  	</g>
    <!-- copyright -->
  	<g>
        <rect height="13" width="170" x="0" y="117" class="preview-fill-color_black"/>
        <rect x="65" y="120" width="20" height="2" style="stroke: none; fill: rgba(255,255,255,0.7);"/>
        <rect x="87" y="120" width="3" height="2" style="stroke: none; fill: rgba(255,255,255,0.7);"/>
        <rect x="92" y="120" width="12" height="2" style="stroke: none; fill: rgba(255,255,255,0.7);"/>

        <rect x="69" y="125" width="3" height="2" style="stroke: none; fill: rgba(255,255,255,0.7);"/>
        <rect x="74" y="125" width="9" height="2" style="stroke: none; fill: rgba(255,255,255,0.7);"/>
        <rect x="85" y="125" width="16" height="2" style="stroke: none; fill: rgba(255,255,255,0.7);"/>
  	</g>
</svg>
